97 71 19 87 81
69 65 56 87 90
59 76 25 13 37
53 63 65 59 40

56 51 27 69 62
63 75 21 52 10
16 57 91 84 23
21 82 72 19 45

31 49 45 75 25
53 24 39 96 82
48 60 58 30 13
29 17 37 83 22

76 11 47 32 35
11 37 23 95 25
78 93 32 40 66
100 87 84 77 93

61 34 39 23 63
18 40 42 15 10
43 77 94 17 25
82 66 79 37 46

