33 25 60 90 43
37 93 66 67 30
27 22 66 59 40
19 98 25 77 84

28 90 81 54 67
85 24 98 41 10
36 11 40 46 12
19 34 91 75 55

45 21 52 65 47
71 61 62 93 44
37 19 35 10 98
63 39 11 17 25

13 56 41 68 10
39 10 33 91 32
13 59 75 100 27
73 20 21 49 45

34 95 47 88 73
37 66 25 74 43
64 46 74 44 58
51 83 46 22 34

