52 72 32 48 65 30 89 76 16 87 11 43

99 25 83 91 37 29 39 70 66 2 75 1

85 71 78 43 82 62 81 12 72 41 1 2

91 2 25 93 83 67 63 55 72 28 22 6

41 20 38 2 86 18 17 56 48 96 9 1

69 40 36 32 62 83 21 67 20 51 48 63

23 88 31 19 78 83 68 75 30 28 49 1

36 17 46 97 1 33 53 73 85 43 13 2

20 32 48 38 10 40 53 27 88 70 72 6

31 14 79 7 34 25 69 53 49 68 13 17

